(kicad_symbol_lib
	(version 20231120)
	(generator "kicad_symbol_editor")
	(generator_version "8.0")
	(symbol "STC15W201S-35x-SOP16"
		(exclude_from_sim no)
		(in_bom yes)
		(on_board yes)
		(property "Reference" "U"
			(at -22.86 19.05 0)
			(effects
				(font
					(size 1.27 1.27)
				)
				(justify left)
			)
		)
		(property "Value" "STC15W201S-35x-SOP16"
			(at 1.27 19.05 0)
			(effects
				(font
					(size 1.27 1.27)
				)
				(justify left)
			)
		)
		(property "Footprint" "Package_SO:STC_SOP-16_3.9x9.9mm_P1.27mm"
			(at 0 -21.59 0)
			(effects
				(font
					(size 1.27 1.27)
				)
				(hide yes)
			)
		)
		(property "Datasheet" "www.stcmicro.com/datasheet/STC15F2K60S2-en.pdf"
			(at 0 -19.05 0)
			(effects
				(font
					(size 1.27 1.27)
				)
				(hide yes)
			)
		)
		(property "Description" "Single Chip MCU based on the 8051 architecture, 1KB Flash, 4KB EEPROM, SOP-16"
			(at 0 0 0)
			(effects
				(font
					(size 1.27 1.27)
				)
				(hide yes)
			)
		)
		(property "ki_keywords" "STC 8051 microcontroller"
			(at 0 0 0)
			(effects
				(font
					(size 1.27 1.27)
				)
				(hide yes)
			)
		)
		(property "ki_fp_filters" "STC?SOP*3.9x9.9mm*P1.27mm*"
			(at 0 0 0)
			(effects
				(font
					(size 1.27 1.27)
				)
				(hide yes)
			)
		)
		(symbol "STC15W201S-35x-SOP16_0_1"
			(rectangle
				(start -22.86 17.78)
				(end 22.86 -17.78)
				(stroke
					(width 0.254)
					(type default)
				)
				(fill
					(type background)
				)
			)
		)
		(symbol "STC15W201S-35x-SOP16_1_1"
			(pin bidirectional line
				(at -25.4 5.08 0)
				(length 2.54)
				(name "P1.2/CMPO/T0"
					(effects
						(font
							(size 1.27 1.27)
						)
					)
				)
				(number "1"
					(effects
						(font
							(size 1.27 1.27)
						)
					)
				)
			)
			(pin bidirectional line
				(at 25.4 7.62 180)
				(length 2.54)
				(name "TxD/T2/P3.1"
					(effects
						(font
							(size 1.27 1.27)
						)
					)
				)
				(number "10"
					(effects
						(font
							(size 1.27 1.27)
						)
					)
				)
			)
			(pin bidirectional line
				(at 25.4 5.08 180)
				(length 2.54)
				(name "INT0/P3.2"
					(effects
						(font
							(size 1.27 1.27)
						)
					)
				)
				(number "11"
					(effects
						(font
							(size 1.27 1.27)
						)
					)
				)
			)
			(pin bidirectional line
				(at 25.4 2.54 180)
				(length 2.54)
				(name "INT1/P3.3"
					(effects
						(font
							(size 1.27 1.27)
						)
					)
				)
				(number "12"
					(effects
						(font
							(size 1.27 1.27)
						)
					)
				)
			)
			(pin bidirectional line
				(at 25.4 0 180)
				(length 2.54)
				(name "~{INT2}/RxD_2/P3.6"
					(effects
						(font
							(size 1.27 1.27)
						)
					)
				)
				(number "13"
					(effects
						(font
							(size 1.27 1.27)
						)
					)
				)
			)
			(pin bidirectional line
				(at 25.4 -2.54 180)
				(length 2.54)
				(name "~{INT3}/TxD_2/P3.7"
					(effects
						(font
							(size 1.27 1.27)
						)
					)
				)
				(number "14"
					(effects
						(font
							(size 1.27 1.27)
						)
					)
				)
			)
			(pin bidirectional line
				(at -25.4 10.16 0)
				(length 2.54)
				(name "P1.0/RSTOUT_LOW"
					(effects
						(font
							(size 1.27 1.27)
						)
					)
				)
				(number "15"
					(effects
						(font
							(size 1.27 1.27)
						)
					)
				)
			)
			(pin bidirectional line
				(at -25.4 7.62 0)
				(length 2.54)
				(name "P1.1"
					(effects
						(font
							(size 1.27 1.27)
						)
					)
				)
				(number "16"
					(effects
						(font
							(size 1.27 1.27)
						)
					)
				)
			)
			(pin bidirectional line
				(at -25.4 2.54 0)
				(length 2.54)
				(name "P1.3"
					(effects
						(font
							(size 1.27 1.27)
						)
					)
				)
				(number "2"
					(effects
						(font
							(size 1.27 1.27)
						)
					)
				)
			)
			(pin bidirectional line
				(at -25.4 0 0)
				(length 2.54)
				(name "P1.4/T0CLKO"
					(effects
						(font
							(size 1.27 1.27)
						)
					)
				)
				(number "3"
					(effects
						(font
							(size 1.27 1.27)
						)
					)
				)
			)
			(pin bidirectional line
				(at -25.4 -2.54 0)
				(length 2.54)
				(name "P1.5"
					(effects
						(font
							(size 1.27 1.27)
						)
					)
				)
				(number "4"
					(effects
						(font
							(size 1.27 1.27)
						)
					)
				)
			)
			(pin bidirectional line
				(at 25.4 -7.62 180)
				(length 2.54)
				(name "CMP-/MCLKO/RST/P5.4"
					(effects
						(font
							(size 1.27 1.27)
						)
					)
				)
				(number "5"
					(effects
						(font
							(size 1.27 1.27)
						)
					)
				)
			)
			(pin power_in line
				(at 0 20.32 270)
				(length 2.54)
				(name "VCC"
					(effects
						(font
							(size 1.27 1.27)
						)
					)
				)
				(number "6"
					(effects
						(font
							(size 1.27 1.27)
						)
					)
				)
			)
			(pin bidirectional line
				(at 25.4 -10.16 180)
				(length 2.54)
				(name "CMP+/P5.5"
					(effects
						(font
							(size 1.27 1.27)
						)
					)
				)
				(number "7"
					(effects
						(font
							(size 1.27 1.27)
						)
					)
				)
			)
			(pin power_in line
				(at 0 -20.32 90)
				(length 2.54)
				(name "GND"
					(effects
						(font
							(size 1.27 1.27)
						)
					)
				)
				(number "8"
					(effects
						(font
							(size 1.27 1.27)
						)
					)
				)
			)
			(pin bidirectional line
				(at 25.4 10.16 180)
				(length 2.54)
				(name "RxD/~{INT4}/T2CLKO/P3.0"
					(effects
						(font
							(size 1.27 1.27)
						)
					)
				)
				(number "9"
					(effects
						(font
							(size 1.27 1.27)
						)
					)
				)
			)
		)
	)
	(symbol "STC8G1K08-38I-TSSOP20"
		(exclude_from_sim no)
		(in_bom yes)
		(on_board yes)
		(property "Reference" "U"
			(at -40.64 16.51 0)
			(effects
				(font
					(size 1.27 1.27)
				)
				(justify left)
			)
		)
		(property "Value" "STC8G1K08-38I-TSSOP20"
			(at 15.24 16.51 0)
			(effects
				(font
					(size 1.27 1.27)
				)
				(justify left)
			)
		)
		(property "Footprint" "Package_SO:TSSOP-20_4.4x6.5mm_P0.65mm"
			(at 0 -19.05 0)
			(effects
				(font
					(size 1.27 1.27)
				)
				(hide yes)
			)
		)
		(property "Datasheet" "www.stcmicro.com/datasheet/STC8G-en.pdf"
			(at 0 -16.51 0)
			(effects
				(font
					(size 1.27 1.27)
				)
				(hide yes)
			)
		)
		(property "Description" "Single Chip MCU based on the 8051 architecture, 8KB Flash, 4KB EEPROM, TSSOP-20"
			(at 0 0 0)
			(effects
				(font
					(size 1.27 1.27)
				)
				(hide yes)
			)
		)
		(property "ki_keywords" "STC 8051 microcontroller"
			(at 0 0 0)
			(effects
				(font
					(size 1.27 1.27)
				)
				(hide yes)
			)
		)
		(property "ki_fp_filters" "TSSOP?20*4.4x6.5mm*P0.65mm*"
			(at 0 0 0)
			(effects
				(font
					(size 1.27 1.27)
				)
				(hide yes)
			)
		)
		(symbol "STC8G1K08-38I-TSSOP20_0_1"
			(rectangle
				(start -40.64 15.24)
				(end 40.64 -15.24)
				(stroke
					(width 0.254)
					(type default)
				)
				(fill
					(type background)
				)
			)
		)
		(symbol "STC8G1K08-38I-TSSOP20_1_1"
			(pin bidirectional line
				(at -43.18 5.08 0)
				(length 2.54)
				(name "P1.2/ADC2/SS/T2/ECI"
					(effects
						(font
							(size 1.27 1.27)
						)
					)
				)
				(number "1"
					(effects
						(font
							(size 1.27 1.27)
						)
					)
				)
			)
			(pin power_in line
				(at 0 -17.78 90)
				(length 2.54)
				(name "GND"
					(effects
						(font
							(size 1.27 1.27)
						)
					)
				)
				(number "10"
					(effects
						(font
							(size 1.27 1.27)
						)
					)
				)
			)
			(pin bidirectional line
				(at 43.18 12.7 180)
				(length 2.54)
				(name "INT4/RxD/ADC8/P3.0"
					(effects
						(font
							(size 1.27 1.27)
						)
					)
				)
				(number "11"
					(effects
						(font
							(size 1.27 1.27)
						)
					)
				)
			)
			(pin bidirectional line
				(at 43.18 10.16 180)
				(length 2.54)
				(name "TxD/ADC9/P3.1"
					(effects
						(font
							(size 1.27 1.27)
						)
					)
				)
				(number "12"
					(effects
						(font
							(size 1.27 1.27)
						)
					)
				)
			)
			(pin bidirectional line
				(at 43.18 7.62 180)
				(length 2.54)
				(name "INT0/SCLK_4/SCL_4/ADC10/P3.2"
					(effects
						(font
							(size 1.27 1.27)
						)
					)
				)
				(number "13"
					(effects
						(font
							(size 1.27 1.27)
						)
					)
				)
			)
			(pin bidirectional line
				(at 43.18 5.08 180)
				(length 2.54)
				(name "INT1/MISO_4/SDA_4/ADC11/P3.3"
					(effects
						(font
							(size 1.27 1.27)
						)
					)
				)
				(number "14"
					(effects
						(font
							(size 1.27 1.27)
						)
					)
				)
			)
			(pin bidirectional line
				(at 43.18 2.54 180)
				(length 2.54)
				(name "CMPO/ECI_2/T1CLKO/MOSI_4/T0/ADC12/P3.4"
					(effects
						(font
							(size 1.27 1.27)
						)
					)
				)
				(number "15"
					(effects
						(font
							(size 1.27 1.27)
						)
					)
				)
			)
			(pin bidirectional line
				(at 43.18 0 180)
				(length 2.54)
				(name "SS_4/CCP0_2/T0CLKO/T1/ADC13/P3.5"
					(effects
						(font
							(size 1.27 1.27)
						)
					)
				)
				(number "16"
					(effects
						(font
							(size 1.27 1.27)
						)
					)
				)
			)
			(pin bidirectional line
				(at 43.18 -2.54 180)
				(length 2.54)
				(name "INT2/CMP-/CCP1_2/RxD_2/ADC14/P3.6"
					(effects
						(font
							(size 1.27 1.27)
						)
					)
				)
				(number "17"
					(effects
						(font
							(size 1.27 1.27)
						)
					)
				)
			)
			(pin bidirectional line
				(at 43.18 -5.08 180)
				(length 2.54)
				(name "INT3/CMP+/CCP2/CCP2_2/TxD_2/P3.7"
					(effects
						(font
							(size 1.27 1.27)
						)
					)
				)
				(number "18"
					(effects
						(font
							(size 1.27 1.27)
						)
					)
				)
			)
			(pin bidirectional line
				(at -43.18 10.16 0)
				(length 2.54)
				(name "P1.0/ADC0/RxD2/CCP1"
					(effects
						(font
							(size 1.27 1.27)
						)
					)
				)
				(number "19"
					(effects
						(font
							(size 1.27 1.27)
						)
					)
				)
			)
			(pin bidirectional line
				(at -43.18 2.54 0)
				(length 2.54)
				(name "P1.3/ADC3/MOSI/T2CLKO"
					(effects
						(font
							(size 1.27 1.27)
						)
					)
				)
				(number "2"
					(effects
						(font
							(size 1.27 1.27)
						)
					)
				)
			)
			(pin bidirectional line
				(at -43.18 7.62 0)
				(length 2.54)
				(name "P1.1/ADC1/TxD2/CCP0"
					(effects
						(font
							(size 1.27 1.27)
						)
					)
				)
				(number "20"
					(effects
						(font
							(size 1.27 1.27)
						)
					)
				)
			)
			(pin bidirectional line
				(at -43.18 0 0)
				(length 2.54)
				(name "P1.4/ADC4/MISO/SDA"
					(effects
						(font
							(size 1.27 1.27)
						)
					)
				)
				(number "3"
					(effects
						(font
							(size 1.27 1.27)
						)
					)
				)
			)
			(pin bidirectional line
				(at -43.18 -2.54 0)
				(length 2.54)
				(name "P1.5/ADC5/SCLK/SCL"
					(effects
						(font
							(size 1.27 1.27)
						)
					)
				)
				(number "4"
					(effects
						(font
							(size 1.27 1.27)
						)
					)
				)
			)
			(pin bidirectional line
				(at -43.18 -5.08 0)
				(length 2.54)
				(name "P1.6/ADC6/RxD_3/MCLKO_2/XTALO"
					(effects
						(font
							(size 1.27 1.27)
						)
					)
				)
				(number "5"
					(effects
						(font
							(size 1.27 1.27)
						)
					)
				)
			)
			(pin bidirectional line
				(at -43.18 -7.62 0)
				(length 2.54)
				(name "P1.7/ADC7/TxD_3/XTALI"
					(effects
						(font
							(size 1.27 1.27)
						)
					)
				)
				(number "6"
					(effects
						(font
							(size 1.27 1.27)
						)
					)
				)
			)
			(pin bidirectional line
				(at 43.18 -10.16 180)
				(length 2.54)
				(name "MCLKO/RST/P5.4"
					(effects
						(font
							(size 1.27 1.27)
						)
					)
				)
				(number "7"
					(effects
						(font
							(size 1.27 1.27)
						)
					)
				)
			)
			(pin power_in line
				(at 0 17.78 270)
				(length 2.54)
				(name "VCC"
					(effects
						(font
							(size 1.27 1.27)
						)
					)
				)
				(number "8"
					(effects
						(font
							(size 1.27 1.27)
						)
					)
				)
			)
			(pin bidirectional line
				(at 43.18 -12.7 180)
				(length 2.54)
				(name "P5.5"
					(effects
						(font
							(size 1.27 1.27)
						)
					)
				)
				(number "9"
					(effects
						(font
							(size 1.27 1.27)
						)
					)
				)
			)
		)
	)
	(symbol "STC8G1K08A-36I-DFN8"
		(exclude_from_sim no)
		(in_bom yes)
		(on_board yes)
		(property "Reference" "U"
			(at -10.414 8.89 0)
			(effects
				(font
					(size 1.27 1.27)
				)
				(justify left)
			)
		)
		(property "Value" "STC8G1K08A-36I-DFN8"
			(at 1.778 8.89 0)
			(effects
				(font
					(size 1.27 1.27)
				)
				(justify left)
			)
		)
		(property "Footprint" "Package_DFN_QFN:DFN-8-1EP_3x3mm_P0.5mm_EP1.7x2.4mm"
			(at 1.524 -39.37 0)
			(effects
				(font
					(size 1.27 1.27)
				)
				(hide yes)
			)
		)
		(property "Datasheet" "https://stcmicro.com/datasheet/STC8G-en.pdf"
			(at 1.524 -36.83 0)
			(effects
				(font
					(size 1.27 1.27)
				)
				(hide yes)
			)
		)
		(property "Description" "Single Chip MCU based on the 8051 architecture, 8KiB Flash, 1.25KiB SRAM, 4KiB EEPROM, 1.9..5.5V, 36 MHz, 6 GPIO, DFN-8"
			(at 3.81 -33.528 0)
			(effects
				(font
					(size 1.27 1.27)
				)
				(hide yes)
			)
		)
		(property "ki_keywords" "STC microcontroller I2C SPI UART PWM ADC ISP"
			(at 0 0 0)
			(effects
				(font
					(size 1.27 1.27)
				)
				(hide yes)
			)
		)
		(property "ki_fp_filters" "*DFN*3x3mm*P0.5mm*EP1.7x2.4mm*"
			(at 0 0 0)
			(effects
				(font
					(size 1.27 1.27)
				)
				(hide yes)
			)
		)
		(symbol "STC8G1K08A-36I-DFN8_0_1"
			(rectangle
				(start -10.16 7.62)
				(end 10.16 -7.62)
				(stroke
					(width 0.254)
					(type default)
				)
				(fill
					(type background)
				)
			)
		)
		(symbol "STC8G1K08A-36I-DFN8_1_0"
			(pin passive line
				(at 2.54 -10.16 90)
				(length 2.54)
				(name "EPAD"
					(effects
						(font
							(size 1.27 1.27)
						)
					)
				)
				(number "9"
					(effects
						(font
							(size 1.27 1.27)
						)
					)
				)
			)
		)
		(symbol "STC8G1K08A-36I-DFN8_1_1"
			(pin bidirectional line
				(at 12.7 0 180)
				(length 2.54)
				(name "P5.4"
					(effects
						(font
							(size 1.27 1.27)
						)
					)
				)
				(number "1"
					(effects
						(font
							(size 1.27 1.27)
						)
					)
				)
				(alternate "ADC4" input line)
				(alternate "CCP2" bidirectional line)
				(alternate "CCP2_{2}" bidirectional line)
				(alternate "INT2" input line)
				(alternate "MCLKO" output line)
				(alternate "MOSI" bidirectional line)
				(alternate "RxD_{3}" input line)
				(alternate "SCL_{2}" bidirectional line)
				(alternate "T0" input line)
				(alternate "~{RST}" input line)
			)
			(pin power_in line
				(at 0 10.16 270)
				(length 2.54)
				(name "VCC"
					(effects
						(font
							(size 1.27 1.27)
						)
					)
				)
				(number "2"
					(effects
						(font
							(size 1.27 1.27)
						)
					)
				)
			)
			(pin bidirectional line
				(at 12.7 -2.54 180)
				(length 2.54)
				(name "P5.5"
					(effects
						(font
							(size 1.27 1.27)
						)
					)
				)
				(number "3"
					(effects
						(font
							(size 1.27 1.27)
						)
					)
				)
				(alternate "ADC5" input line)
				(alternate "CCP2_{3}" bidirectional line)
				(alternate "ECI" input line)
				(alternate "ECI_{2}" input line)
				(alternate "INT3" input line)
				(alternate "SDA_{2}" bidirectional line)
				(alternate "SS" bidirectional line)
				(alternate "T0CLKO" output line)
				(alternate "T1" input line)
				(alternate "TxD_{3}" output line)
			)
			(pin power_in line
				(at -2.54 -10.16 90)
				(length 2.54)
				(name "GND"
					(effects
						(font
							(size 1.27 1.27)
						)
					)
				)
				(number "4"
					(effects
						(font
							(size 1.27 1.27)
						)
					)
				)
			)
			(pin bidirectional line
				(at -12.7 2.54 0)
				(length 2.54)
				(name "P3.0"
					(effects
						(font
							(size 1.27 1.27)
						)
					)
				)
				(number "5"
					(effects
						(font
							(size 1.27 1.27)
						)
					)
				)
				(alternate "ADC0" input line)
				(alternate "INT4" input line)
				(alternate "RxD" input line)
			)
			(pin bidirectional line
				(at -12.7 0 0)
				(length 2.54)
				(name "P3.1"
					(effects
						(font
							(size 1.27 1.27)
						)
					)
				)
				(number "6"
					(effects
						(font
							(size 1.27 1.27)
						)
					)
				)
				(alternate "ADC1" input line)
				(alternate "CCP0_{2]" bidirectional line)
				(alternate "ECI_{3}" input line)
				(alternate "TxD" output line)
			)
			(pin bidirectional line
				(at -12.7 -2.54 0)
				(length 2.54)
				(name "P3.2"
					(effects
						(font
							(size 1.27 1.27)
						)
					)
				)
				(number "7"
					(effects
						(font
							(size 1.27 1.27)
						)
					)
				)
				(alternate "ADC2" input line)
				(alternate "CCP0" bidirectional line)
				(alternate "CCP0_{3}" bidirectional line)
				(alternate "INT0" input line)
				(alternate "RxD_{2}" input line)
				(alternate "SCL" bidirectional line)
				(alternate "SCLK" bidirectional line)
			)
			(pin bidirectional line
				(at 12.7 2.54 180)
				(length 2.54)
				(name "P3.3"
					(effects
						(font
							(size 1.27 1.27)
						)
					)
				)
				(number "8"
					(effects
						(font
							(size 1.27 1.27)
						)
					)
				)
				(alternate "ADC3" input line)
				(alternate "CCP1" bidirectional line)
				(alternate "CCP1_{2}" bidirectional line)
				(alternate "CCP1_{3}" bidirectional line)
				(alternate "INT1" input line)
				(alternate "MISO" bidirectional line)
				(alternate "SDA" bidirectional line)
				(alternate "TxD_{2}" output line)
			)
		)
	)
	(symbol "IAP15W205S-35x-SOP16"
		(extends "STC15W201S-35x-SOP16")
		(property "Reference" "U"
			(at -22.86 19.05 0)
			(effects
				(font
					(size 1.27 1.27)
				)
				(justify left)
			)
		)
		(property "Value" "IAP15W205S-35x-SOP16"
			(at 1.27 19.05 0)
			(effects
				(font
					(size 1.27 1.27)
				)
				(justify left)
			)
		)
		(property "Footprint" "Package_SO:STC_SOP-16_3.9x9.9mm_P1.27mm"
			(at 0 -21.59 0)
			(effects
				(font
					(size 1.27 1.27)
				)
				(hide yes)
			)
		)
		(property "Datasheet" "www.stcmicro.com/datasheet/STC15F2K60S2-en.pdf"
			(at 0 -19.05 0)
			(effects
				(font
					(size 1.27 1.27)
				)
				(hide yes)
			)
		)
		(property "Description" "Single Chip MCU based on the 8051 architecture, 5KB Flash, unified program/data memory, SOP-16"
			(at 0 0 0)
			(effects
				(font
					(size 1.27 1.27)
				)
				(hide yes)
			)
		)
		(property "ki_keywords" "STC 8051 microcontroller"
			(at 0 0 0)
			(effects
				(font
					(size 1.27 1.27)
				)
				(hide yes)
			)
		)
		(property "ki_fp_filters" "STC?SOP*3.9x9.9mm*P1.27mm*"
			(at 0 0 0)
			(effects
				(font
					(size 1.27 1.27)
				)
				(hide yes)
			)
		)
	)
	(symbol "IRC15W207S-35x-SOP16"
		(extends "STC15W201S-35x-SOP16")
		(property "Reference" "U"
			(at -22.86 19.05 0)
			(effects
				(font
					(size 1.27 1.27)
				)
				(justify left)
			)
		)
		(property "Value" "IRC15W207S-35x-SOP16"
			(at 1.27 19.05 0)
			(effects
				(font
					(size 1.27 1.27)
				)
				(justify left)
			)
		)
		(property "Footprint" "Package_SO:STC_SOP-16_3.9x9.9mm_P1.27mm"
			(at 0 -21.59 0)
			(effects
				(font
					(size 1.27 1.27)
				)
				(hide yes)
			)
		)
		(property "Datasheet" "www.stcmicro.com/datasheet/STC15F2K60S2-en.pdf"
			(at 0 -19.05 0)
			(effects
				(font
					(size 1.27 1.27)
				)
				(hide yes)
			)
		)
		(property "Description" "Single Chip MCU based on the 8051 architecture, 7.5KB Flash, unified program/data memory, fixed 24MHz Clock, SOP-16"
			(at 0 0 0)
			(effects
				(font
					(size 1.27 1.27)
				)
				(hide yes)
			)
		)
		(property "ki_keywords" "STC 8051 microcontroller"
			(at 0 0 0)
			(effects
				(font
					(size 1.27 1.27)
				)
				(hide yes)
			)
		)
		(property "ki_fp_filters" "STC?SOP*3.9x9.9mm*P1.27mm*"
			(at 0 0 0)
			(effects
				(font
					(size 1.27 1.27)
				)
				(hide yes)
			)
		)
	)
	(symbol "STC15W202S-35x-SOP16"
		(extends "STC15W201S-35x-SOP16")
		(property "Reference" "U"
			(at -22.86 19.05 0)
			(effects
				(font
					(size 1.27 1.27)
				)
				(justify left)
			)
		)
		(property "Value" "STC15W202S-35x-SOP16"
			(at 1.27 19.05 0)
			(effects
				(font
					(size 1.27 1.27)
				)
				(justify left)
			)
		)
		(property "Footprint" "Package_SO:STC_SOP-16_3.9x9.9mm_P1.27mm"
			(at 0 -21.59 0)
			(effects
				(font
					(size 1.27 1.27)
				)
				(hide yes)
			)
		)
		(property "Datasheet" "www.stcmicro.com/datasheet/STC15F2K60S2-en.pdf"
			(at 0 -19.05 0)
			(effects
				(font
					(size 1.27 1.27)
				)
				(hide yes)
			)
		)
		(property "Description" "Single Chip MCU based on the 8051 architecture, 2KB Flash, 3KB EEPROM, SOP-16"
			(at 0 0 0)
			(effects
				(font
					(size 1.27 1.27)
				)
				(hide yes)
			)
		)
		(property "ki_keywords" "STC 8051 microcontroller"
			(at 0 0 0)
			(effects
				(font
					(size 1.27 1.27)
				)
				(hide yes)
			)
		)
		(property "ki_fp_filters" "STC?SOP*3.9x9.9mm*P1.27mm*"
			(at 0 0 0)
			(effects
				(font
					(size 1.27 1.27)
				)
				(hide yes)
			)
		)
	)
	(symbol "STC15W203S-35x-SOP16"
		(extends "STC15W201S-35x-SOP16")
		(property "Reference" "U"
			(at -22.86 19.05 0)
			(effects
				(font
					(size 1.27 1.27)
				)
				(justify left)
			)
		)
		(property "Value" "STC15W203S-35x-SOP16"
			(at 1.27 19.05 0)
			(effects
				(font
					(size 1.27 1.27)
				)
				(justify left)
			)
		)
		(property "Footprint" "Package_SO:STC_SOP-16_3.9x9.9mm_P1.27mm"
			(at 0 -21.59 0)
			(effects
				(font
					(size 1.27 1.27)
				)
				(hide yes)
			)
		)
		(property "Datasheet" "www.stcmicro.com/datasheet/STC15F2K60S2-en.pdf"
			(at 0 -19.05 0)
			(effects
				(font
					(size 1.27 1.27)
				)
				(hide yes)
			)
		)
		(property "Description" "Single Chip MCU based on the 8051 architecture, 3KB Flash, 2KB EEPROM, SOP-16"
			(at 0 0 0)
			(effects
				(font
					(size 1.27 1.27)
				)
				(hide yes)
			)
		)
		(property "ki_keywords" "STC 8051 microcontroller"
			(at 0 0 0)
			(effects
				(font
					(size 1.27 1.27)
				)
				(hide yes)
			)
		)
		(property "ki_fp_filters" "STC?SOP*3.9x9.9mm*P1.27mm*"
			(at 0 0 0)
			(effects
				(font
					(size 1.27 1.27)
				)
				(hide yes)
			)
		)
	)
	(symbol "STC15W204S-35x-SOP16"
		(extends "STC15W201S-35x-SOP16")
		(property "Reference" "U"
			(at -22.86 19.05 0)
			(effects
				(font
					(size 1.27 1.27)
				)
				(justify left)
			)
		)
		(property "Value" "STC15W204S-35x-SOP16"
			(at 1.27 19.05 0)
			(effects
				(font
					(size 1.27 1.27)
				)
				(justify left)
			)
		)
		(property "Footprint" "Package_SO:STC_SOP-16_3.9x9.9mm_P1.27mm"
			(at 0 -21.59 0)
			(effects
				(font
					(size 1.27 1.27)
				)
				(hide yes)
			)
		)
		(property "Datasheet" "www.stcmicro.com/datasheet/STC15F2K60S2-en.pdf"
			(at 0 -19.05 0)
			(effects
				(font
					(size 1.27 1.27)
				)
				(hide yes)
			)
		)
		(property "Description" "Single Chip MCU based on the 8051 architecture, 4KB Flash, 1KB EEPROM, SOP-16"
			(at 0 0 0)
			(effects
				(font
					(size 1.27 1.27)
				)
				(hide yes)
			)
		)
		(property "ki_keywords" "STC 8051 microcontroller"
			(at 0 0 0)
			(effects
				(font
					(size 1.27 1.27)
				)
				(hide yes)
			)
		)
		(property "ki_fp_filters" "STC?SOP*3.9x9.9mm*P1.27mm*"
			(at 0 0 0)
			(effects
				(font
					(size 1.27 1.27)
				)
				(hide yes)
			)
		)
	)
	(symbol "STC8G1K04-38I-TSSOP20"
		(extends "STC8G1K08-38I-TSSOP20")
		(property "Reference" "U"
			(at -39.37 16.51 0)
			(effects
				(font
					(size 1.27 1.27)
				)
				(justify left)
			)
		)
		(property "Value" "STC8G1K04-38I-TSSOP20"
			(at 13.97 16.51 0)
			(effects
				(font
					(size 1.27 1.27)
				)
				(justify left)
			)
		)
		(property "Footprint" "Package_SO:TSSOP-20_4.4x6.5mm_P0.65mm"
			(at 0 -20.32 0)
			(effects
				(font
					(size 1.27 1.27)
				)
				(hide yes)
			)
		)
		(property "Datasheet" "www.stcmicro.com/datasheet/STC8G-en.pdf"
			(at 0 -17.78 0)
			(effects
				(font
					(size 1.27 1.27)
				)
				(hide yes)
			)
		)
		(property "Description" "Single Chip MCU based on the 8051 architecture, 4KB Flash, 8KB EEPROM, TSSOP-20"
			(at 0 0 0)
			(effects
				(font
					(size 1.27 1.27)
				)
				(hide yes)
			)
		)
		(property "ki_keywords" "STC 8051 microcontroller"
			(at 0 0 0)
			(effects
				(font
					(size 1.27 1.27)
				)
				(hide yes)
			)
		)
		(property "ki_fp_filters" "TSSOP?20*4.4x6.5mm*P0.65mm*"
			(at 0 0 0)
			(effects
				(font
					(size 1.27 1.27)
				)
				(hide yes)
			)
		)
	)
	(symbol "STC8G1K17-38I-TSSOP20"
		(extends "STC8G1K08-38I-TSSOP20")
		(property "Reference" "U"
			(at -39.37 16.51 0)
			(effects
				(font
					(size 1.27 1.27)
				)
				(justify left)
			)
		)
		(property "Value" "STC8G1K17-38I-TSSOP20"
			(at 13.97 16.51 0)
			(effects
				(font
					(size 1.27 1.27)
				)
				(justify left)
			)
		)
		(property "Footprint" "Package_SO:TSSOP-20_4.4x6.5mm_P0.65mm"
			(at 0 -20.32 0)
			(effects
				(font
					(size 1.27 1.27)
				)
				(hide yes)
			)
		)
		(property "Datasheet" "www.stcmicro.com/datasheet/STC8G-en.pdf"
			(at 0 -17.78 0)
			(effects
				(font
					(size 1.27 1.27)
				)
				(hide yes)
			)
		)
		(property "Description" "Single Chip MCU based on the 8051 architecture, 17KB Flash, IAP, TSSOP-20"
			(at 0 0 0)
			(effects
				(font
					(size 1.27 1.27)
				)
				(hide yes)
			)
		)
		(property "ki_keywords" "STC 8051 microcontroller"
			(at 0 0 0)
			(effects
				(font
					(size 1.27 1.27)
				)
				(hide yes)
			)
		)
		(property "ki_fp_filters" "TSSOP?20*4.4x6.5mm*P0.65mm*"
			(at 0 0 0)
			(effects
				(font
					(size 1.27 1.27)
				)
				(hide yes)
			)
		)
	)
)
